{
    "id": "8afe6589-d837-49e0-923b-bcf8a32b2da4",
    "schema": "https://metadata.datadrivendiscovery.org/schemas/v0/pipeline.json",
    "created": "2019-06-20T22:20:31.797923Z",
    "inputs": [
        {
            "name": "inputs"
        }
    ],
    "outputs": [
        {
            "data": "steps.3.produce",
            "name": "Links"
        }
    ],
    "steps": [
        {
            "type": "PRIMITIVE",
            "primitive": {
                "id": "3c4a1c2a-0f88-4fb1-a1b5-23226a38741b",
                "version": "1.5.5",
                "python_path": "d3m.primitives.data_transformation.graph_matching_parser.GraphMatchingParser",
                "name": "Graph Matching Parser"
            },
            "arguments": {
                "inputs": {
                    "type": "CONTAINER",
                    "data": "inputs.0"
                }
            },
            "outputs": [
                {
                    "id": "produce"
                }
            ]
        },
        {
            "type": "PRIMITIVE",
            "primitive": {
                "id": "da0405b0-2d6f-4107-94f6-658913c7cc70",
                "version": "1.5.5",
                "python_path": "d3m.primitives.data_transformation.graph_transformer.GraphTransformer",
                "name": "Graph Transformer"
            },
            "arguments": {
                "inputs": {
                    "type": "CONTAINER",
                    "data": "steps.0.produce"
                }
            },
            "outputs": [
                {
                    "id": "produce"
                }
            ]
        },
        {
            "type": "PRIMITIVE",
            "primitive": {
                "id": "d83aa8fe-0433-4462-be54-b4074959b6fc",
                "version": "1.5.5",
                "python_path": "d3m.primitives.link_prediction.link_prediction.LinkPrediction",
                "name": "Link Prediction"
            },
            "arguments": {
                "inputs": {
                    "type": "CONTAINER",
                    "data": "steps.1.produce"
                }
            },
            "outputs": [
                {
                    "id": "produce"
                }
            ],
            "hyperparams": {
                "prediction_column": {
                    "type": "VALUE",
                    "data": "match"
                },
                "truth_threshold": {
                    "type": "VALUE",
                    "data": 1e-07
                }
            }
        },
        {
            "type": "PRIMITIVE",
            "primitive": {
                "id": "8d38b340-f83f-4877-baaa-162f8e551736",
                "version": "0.3.0",
                "python_path": "d3m.primitives.data_transformation.construct_predictions.DataFrameCommon",
                "name": "Construct pipeline predictions output"
            },
            "arguments": {
                "inputs": {
                    "type": "CONTAINER",
                    "data": "steps.2.produce"
                },
                "reference": {
                    "type": "CONTAINER",
                    "data": "steps.2.produce"
                }
            },
            "outputs": [
                {
                    "id": "produce"
                }
            ],
            "hyperparams": {
                "use_columns": {
                    "type": "VALUE",
                    "data": [
                        0,
                        1
                    ]
                }
            }
        }
    ]
}