{
    "id": "43ad96e2-6a88-404e-8e90-14c5a2b4aa9d",
    "schema": "https://metadata.datadrivendiscovery.org/schemas/v0/pipeline.json",
    "created": "2020-04-08T21:31:34.646745Z",
    "inputs": [
        {
            "name": "inputs"
        }
    ],
    "outputs": [
        {
            "data": "steps.26.produce",
            "name": "output predictions"
        }
    ],
    "steps": [
        {
            "type": "PRIMITIVE",
            "primitive": {
                "id": "f31f8c1f-d1c5-43e5-a4b2-2ae4a761ef2e",
                "version": "0.2.0",
                "python_path": "d3m.primitives.data_transformation.denormalize.Common",
                "name": "Denormalize datasets",
                "digest": "98a5fa329938b574790eefe3f0890137c4976110fb7b23abcb5099e7c972f714"
            },
            "arguments": {
                "inputs": {
                    "type": "CONTAINER",
                    "data": "inputs.0"
                }
            },
            "outputs": [
                {
                    "id": "produce"
                }
            ]
        },
        {
            "type": "PRIMITIVE",
            "primitive": {
                "id": "4b42ce1e-9b98-4a25-b68e-fad13311eb65",
                "version": "0.3.0",
                "python_path": "d3m.primitives.data_transformation.dataset_to_dataframe.Common",
                "name": "Extract a DataFrame from a Dataset",
                "digest": "db862325c61c1636f6fced499be3316bd0ead44f7a9dd6dc7e9f3a133fb22a24"
            },
            "arguments": {
                "inputs": {
                    "type": "CONTAINER",
                    "data": "steps.0.produce"
                }
            },
            "outputs": [
                {
                    "id": "produce"
                }
            ]
        },
        {
            "type": "PRIMITIVE",
            "primitive": {
                "id": "adc6e2e6-a477-41cf-8ce2-5dc1b475246e",
                "version": "0.1.0",
                "python_path": "d3m.primitives.data_transformation.dataframe_sampling.TAMU",
                "name": "DataFrame Sampling",
                "digest": "4d192f509dfa5b31806d8f7eb152331f03b7df0fde27fab91f10a11ed9293640"
            },
            "arguments": {
                "inputs": {
                    "type": "CONTAINER",
                    "data": "steps.1.produce"
                }
            },
            "outputs": [
                {
                    "id": "produce"
                }
            ],
            "hyperparams": {
                "sample_size": {
                    "type": "VALUE",
                    "data": 0.1
                }
            }
        },
        {
            "type": "PRIMITIVE",
            "primitive": {
                "id": "9fe84601-a3d7-4881-86b2-44fecd42b296",
                "version": "0.1.0",
                "python_path": "d3m.primitives.data_transformation.dataframe_list_extractor.TAMU",
                "name": "Select dataframe from list of dataframes",
                "digest": "277c5b99500134772438a11e685b10d0719254102d017628e548c3ac9add2dfc"
            },
            "arguments": {
                "inputs": {
                    "type": "CONTAINER",
                    "data": "steps.2.produce"
                }
            },
            "outputs": [
                {
                    "id": "produce"
                }
            ]
        },
        {
            "type": "PRIMITIVE",
            "primitive": {
                "id": "8f2e51e8-da59-456d-ae29-53912b2b9f3d",
                "version": "0.2.0",
                "python_path": "d3m.primitives.data_preprocessing.image_reader.Common",
                "name": "Columns image reader",
                "digest": "c6520a056fb969735f1d269e7d57a3c72a2959d2a30dfc8a41a6581d89ec5313"
            },
            "hyperparams": {
                "return_result": {
                    "type": "VALUE",
                    "data": "new"
                }
            }
        },
        {
            "type": "PRIMITIVE",
            "primitive": {
                "id": "e8acc97a-7868-427e-b022-e2aa51116d19",
                "version": "1.1.0",
                "python_path": "d3m.primitives.layer.flatten.KerasWrap",
                "name": "flatten",
                "digest": "13f8d1125e659fbdb02f92ee3427c6c5fdd3e0942aaf2a119e09d702d382072c"
            }
        },
        {
            "type": "PRIMITIVE",
            "primitive": {
                "id": "01cee53a-88e3-4bf3-993a-fd64805e9b8e",
                "version": "1.1.0",
                "python_path": "d3m.primitives.loss_function.categorical_crossentropy.KerasWrap",
                "name": "categorical_crossentropy",
                "digest": "f8b78d8d16a7b96d7006bc74bb5dc09a48e63eef39eeda255645629bc2c0c58b"
            }
        },
        {
            "type": "PRIMITIVE",
            "primitive": {
                "id": "393ac0d9-8d4d-4b2a-85dc-35815e8a6695",
                "version": "1.1.0",
                "python_path": "d3m.primitives.loss_function.categorical_accuracy.KerasWrap",
                "name": "categorical_accuracy",
                "digest": "23881324fda4a4976e04dc0cef1e06c4b7048511e9437590efd49d8e7d54c3bb"
            }
        },
        {
            "type": "PRIMITIVE",
            "primitive": {
                "id": "288162cd-b71d-418d-9555-cc177c5f592e",
                "version": "1.1.0",
                "python_path": "d3m.primitives.layer.batch_normalization.KerasWrap",
                "name": "batch_normalization",
                "digest": "14531dfc2e261f75afe17da10f8d80429560a54df00f90ed8e0236e73f164f09"
            }
        },
        {
            "type": "PRIMITIVE",
            "primitive": {
                "id": "6b1cceeb-a3be-4d7d-809a-052ae72b2b13",
                "version": "1.1.0",
                "python_path": "d3m.primitives.layer.convolution_2d.KerasWrap",
                "name": "convolution_2d",
                "digest": "26e4f42118f63052ba752e2bf4de04e562fbaeb1fe63a4971cc9ed12cd56d2c5"
            },
            "hyperparams": {
                "filters": {
                    "type": "VALUE",
                    "data": 64
                },
                "kernel_size": {
                    "type": "VALUE",
                    "data": 3
                },
                "padding": {
                    "type": "VALUE",
                    "data": "same"
                },
                "previous_layer": {
                    "type": "PRIMITIVE",
                    "data": 8
                },
                "strides": {
                    "type": "VALUE",
                    "data": 1
                }
            }
        },
        {
            "type": "PRIMITIVE",
            "primitive": {
                "id": "3507919d-5cc6-458b-b90d-b970d5f28338",
                "version": "1.1.0",
                "python_path": "d3m.primitives.layer.max_pooling_2d.KerasWrap",
                "name": "max_pooling_2d",
                "digest": "12750376b1e3699926360b76c931ff04992a8a8be80027e16e4543147c568dad"
            },
            "hyperparams": {
                "padding": {
                    "type": "VALUE",
                    "data": "valid"
                },
                "pool_size": {
                    "type": "VALUE",
                    "data": [
                        2,
                        2
                    ]
                },
                "previous_layer": {
                    "type": "PRIMITIVE",
                    "data": 9
                },
                "strides": {
                    "type": "VALUE",
                    "data": 2
                }
            }
        },
        {
            "type": "PRIMITIVE",
            "primitive": {
                "id": "288162cd-b71d-418d-9555-cc177c5f592e",
                "version": "1.1.0",
                "python_path": "d3m.primitives.layer.batch_normalization.KerasWrap",
                "name": "batch_normalization",
                "digest": "14531dfc2e261f75afe17da10f8d80429560a54df00f90ed8e0236e73f164f09"
            },
            "hyperparams": {
                "previous_layer": {
                    "type": "PRIMITIVE",
                    "data": 10
                }
            }
        },
        {
            "type": "PRIMITIVE",
            "primitive": {
                "id": "6b1cceeb-a3be-4d7d-809a-052ae72b2b13",
                "version": "1.1.0",
                "python_path": "d3m.primitives.layer.convolution_2d.KerasWrap",
                "name": "convolution_2d",
                "digest": "26e4f42118f63052ba752e2bf4de04e562fbaeb1fe63a4971cc9ed12cd56d2c5"
            },
            "hyperparams": {
                "filters": {
                    "type": "VALUE",
                    "data": 64
                },
                "kernel_size": {
                    "type": "VALUE",
                    "data": 3
                },
                "padding": {
                    "type": "VALUE",
                    "data": "same"
                },
                "previous_layer": {
                    "type": "PRIMITIVE",
                    "data": 11
                },
                "strides": {
                    "type": "VALUE",
                    "data": 1
                }
            }
        },
        {
            "type": "PRIMITIVE",
            "primitive": {
                "id": "3507919d-5cc6-458b-b90d-b970d5f28338",
                "version": "1.1.0",
                "python_path": "d3m.primitives.layer.max_pooling_2d.KerasWrap",
                "name": "max_pooling_2d",
                "digest": "12750376b1e3699926360b76c931ff04992a8a8be80027e16e4543147c568dad"
            },
            "hyperparams": {
                "padding": {
                    "type": "VALUE",
                    "data": "valid"
                },
                "pool_size": {
                    "type": "VALUE",
                    "data": [
                        2,
                        2
                    ]
                },
                "previous_layer": {
                    "type": "PRIMITIVE",
                    "data": 12
                },
                "strides": {
                    "type": "VALUE",
                    "data": 2
                }
            }
        },
        {
            "type": "PRIMITIVE",
            "primitive": {
                "id": "288162cd-b71d-418d-9555-cc177c5f592e",
                "version": "1.1.0",
                "python_path": "d3m.primitives.layer.batch_normalization.KerasWrap",
                "name": "batch_normalization",
                "digest": "14531dfc2e261f75afe17da10f8d80429560a54df00f90ed8e0236e73f164f09"
            },
            "hyperparams": {
                "previous_layer": {
                    "type": "PRIMITIVE",
                    "data": 13
                }
            }
        },
        {
            "type": "PRIMITIVE",
            "primitive": {
                "id": "6b1cceeb-a3be-4d7d-809a-052ae72b2b13",
                "version": "1.1.0",
                "python_path": "d3m.primitives.layer.convolution_2d.KerasWrap",
                "name": "convolution_2d",
                "digest": "26e4f42118f63052ba752e2bf4de04e562fbaeb1fe63a4971cc9ed12cd56d2c5"
            },
            "hyperparams": {
                "filters": {
                    "type": "VALUE",
                    "data": 64
                },
                "kernel_size": {
                    "type": "VALUE",
                    "data": 3
                },
                "padding": {
                    "type": "VALUE",
                    "data": "same"
                },
                "previous_layer": {
                    "type": "PRIMITIVE",
                    "data": 14
                },
                "strides": {
                    "type": "VALUE",
                    "data": 1
                }
            }
        },
        {
            "type": "PRIMITIVE",
            "primitive": {
                "id": "3507919d-5cc6-458b-b90d-b970d5f28338",
                "version": "1.1.0",
                "python_path": "d3m.primitives.layer.max_pooling_2d.KerasWrap",
                "name": "max_pooling_2d",
                "digest": "12750376b1e3699926360b76c931ff04992a8a8be80027e16e4543147c568dad"
            },
            "hyperparams": {
                "padding": {
                    "type": "VALUE",
                    "data": "valid"
                },
                "pool_size": {
                    "type": "VALUE",
                    "data": [
                        2,
                        2
                    ]
                },
                "previous_layer": {
                    "type": "PRIMITIVE",
                    "data": 15
                },
                "strides": {
                    "type": "VALUE",
                    "data": 2
                }
            }
        },
        {
            "type": "PRIMITIVE",
            "primitive": {
                "id": "3507919d-5cc6-458b-b90d-b970d5f28338",
                "version": "1.1.0",
                "python_path": "d3m.primitives.layer.max_pooling_2d.KerasWrap",
                "name": "max_pooling_2d",
                "digest": "12750376b1e3699926360b76c931ff04992a8a8be80027e16e4543147c568dad"
            },
            "hyperparams": {
                "padding": {
                    "type": "VALUE",
                    "data": "same"
                },
                "pool_size": {
                    "type": "VALUE",
                    "data": [
                        4,
                        4
                    ]
                },
                "previous_layer": {
                    "type": "PRIMITIVE",
                    "data": 16
                },
                "strides": {
                    "type": "VALUE",
                    "data": 1
                }
            }
        },
        {
            "type": "PRIMITIVE",
            "primitive": {
                "id": "7a76922c-bf6f-37ce-9e58-1d3315382506",
                "version": "1.1.0",
                "python_path": "d3m.primitives.layer.dropout.KerasWrap",
                "name": "dropout",
                "digest": "d7f3b3f30159a7454b6212b9d5867ed91cf4764765dab60b2f4e1a399a229876"
            },
            "hyperparams": {
                "previous_layer": {
                    "type": "PRIMITIVE",
                    "data": 17
                },
                "rate": {
                    "type": "VALUE",
                    "data": 0.25
                }
            }
        },
        {
            "type": "PRIMITIVE",
            "primitive": {
                "id": "e8acc97a-7868-427e-b022-e2aa51116d19",
                "version": "1.1.0",
                "python_path": "d3m.primitives.layer.flatten.KerasWrap",
                "name": "flatten",
                "digest": "13f8d1125e659fbdb02f92ee3427c6c5fdd3e0942aaf2a119e09d702d382072c"
            },
            "hyperparams": {
                "previous_layer": {
                    "type": "PRIMITIVE",
                    "data": 18
                }
            }
        },
        {
            "type": "PRIMITIVE",
            "primitive": {
                "id": "eb6a13fd-c3e6-4407-a15f-280905e6243e",
                "version": "1.1.0",
                "python_path": "d3m.primitives.layer.dense.KerasWrap",
                "name": "dense",
                "digest": "f9a5043f892d265792152d8d63623fdc1c3c327296132031e47dfa40755ec8b4"
            },
            "hyperparams": {
                "activation": {
                    "type": "VALUE",
                    "data": "relu"
                },
                "previous_layer": {
                    "type": "PRIMITIVE",
                    "data": 19
                },
                "units": {
                    "type": "VALUE",
                    "data": 64
                }
            }
        },
        {
            "type": "PRIMITIVE",
            "primitive": {
                "id": "eb6a13fd-c3e6-4407-a15f-280905e6243e",
                "version": "1.1.0",
                "python_path": "d3m.primitives.layer.dense.KerasWrap",
                "name": "dense",
                "digest": "f9a5043f892d265792152d8d63623fdc1c3c327296132031e47dfa40755ec8b4"
            },
            "hyperparams": {
                "activation": {
                    "type": "VALUE",
                    "data": "relu"
                },
                "previous_layer": {
                    "type": "PRIMITIVE",
                    "data": 20
                },
                "units": {
                    "type": "VALUE",
                    "data": 10
                }
            }
        },
        {
            "type": "PRIMITIVE",
            "primitive": {
                "id": "4503a4c6-42f7-45a1-a1d4-ed69699cf5e1",
                "version": "0.4.0",
                "python_path": "d3m.primitives.data_transformation.extract_columns_by_semantic_types.Common",
                "name": "Extracts columns by semantic type",
                "digest": "d9f4349a7a72140089aa9d9d27b2d303e0856fd1d99e873677cc4a4c88b6bb2a"
            },
            "arguments": {
                "inputs": {
                    "type": "CONTAINER",
                    "data": "steps.3.produce"
                }
            },
            "outputs": [
                {
                    "id": "produce"
                }
            ],
            "hyperparams": {
                "semantic_types": {
                    "type": "VALUE",
                    "data": [
                        "https://metadata.datadrivendiscovery.org/types/TrueTarget"
                    ]
                }
            }
        },
        {
            "type": "PRIMITIVE",
            "primitive": {
                "id": "7bae062e-f8b0-4358-91f2-9288a51f3e82",
                "version": "0.2.0",
                "python_path": "d3m.primitives.data_transformation.replace_semantic_types.Common",
                "name": "Replace semantic types for columns",
                "digest": "82d32cbfc7bc6cc4cc0024a87f51fb8013aeceddabea25fdf1f6a0deb08e7a9a"
            },
            "arguments": {
                "inputs": {
                    "type": "CONTAINER",
                    "data": "steps.3.produce"
                }
            },
            "outputs": [
                {
                    "id": "produce"
                }
            ],
            "hyperparams": {
                "from_semantic_types": {
                    "type": "VALUE",
                    "data": [
                        "https://metadata.datadrivendiscovery.org/types/TrueTarget"
                    ]
                },
                "to_semantic_types": {
                    "type": "VALUE",
                    "data": [
                        "https://metadata.datadrivendiscovery.org/types/TrueTarget",
                        "https://metadata.datadrivendiscovery.org/types/SuggestedTarget"
                    ]
                }
            }
        },
        {
            "type": "PRIMITIVE",
            "primitive": {
                "id": "f8b81d1a-3e22-4edf-aa99-15bcbe827954",
                "version": "1.1.0",
                "python_path": "d3m.primitives.learner.model.KerasWrap",
                "name": "model",
                "digest": "568efce4aad5703c27b1896843f81370d77e852dc81caa900432ef452ab98591"
            },
            "hyperparams": {
                "loss": {
                    "type": "PRIMITIVE",
                    "data": 6
                },
                "model_type": {
                    "type": "VALUE",
                    "data": "classification"
                },
                "network_last_layer": {
                    "type": "PRIMITIVE",
                    "data": 21
                },
                "optimizer": {
                    "type": "VALUE",
                    "data": {
                        "amsgrad": false,
                        "beta_1": 0.9,
                        "beta_2": 0.999,
                        "choice": "Adam",
                        "decay": 0.0,
                        "epsilon": 0.0,
                        "lr": 0.0001
                    }
                },
                "return_result": {
                    "type": "VALUE",
                    "data": "replace"
                }
            }
        },
        {
            "type": "PRIMITIVE",
            "primitive": {
                "id": "d82c1549-4b58-4ef1-a7e4-1c2f441a1256",
                "version": "0.1.0",
                "python_path": "d3m.primitives.data_wrangling.batching.TAMU",
                "name": "Batching reader",
                "digest": "950f9653d1dab3bbe871354645cea956a2bab8c5e1c66278a5bb45b7c8dcda84"
            },
            "arguments": {
                "inputs": {
                    "type": "CONTAINER",
                    "data": "steps.3.produce"
                },
                "outputs": {
                    "type": "CONTAINER",
                    "data": "steps.23.produce"
                }
            },
            "outputs": [
                {
                    "id": "produce"
                }
            ],
            "hyperparams": {
                "primitive_reader": {
                    "type": "PRIMITIVE",
                    "data": 4
                },
                "primitive_learner": {
                    "type": "PRIMITIVE",
                    "data": 24
                },
                "batch_size": {
                    "type": "VALUE",
                    "data": 20
                },
                "sampling_method": {
                    "type": "VALUE",
                    "data": "random"
                }
            }
        },
        {
            "type": "PRIMITIVE",
            "primitive": {
                "id": "8d38b340-f83f-4877-baaa-162f8e551736",
                "version": "0.3.0",
                "python_path": "d3m.primitives.data_transformation.construct_predictions.Common",
                "name": "Construct pipeline predictions output",
                "digest": "65b4fbc73ddadcd7d6c1a74a2538e8d67efc2caa97b8acecd8f6b2be79e7e0f0"
            },
            "arguments": {
                "inputs": {
                    "type": "CONTAINER",
                    "data": "steps.25.produce"
                },
                "reference": {
                    "type": "CONTAINER",
                    "data": "steps.3.produce"
                }
            },
            "outputs": [
                {
                    "id": "produce"
                }
            ]
        }
    ],
    "digest": "73049adaef553972ca4dd6fb68ea60eb343acf4661ffbce51104d5736c88a2d5"
}