{
  "id": "f51f223b-c9f6-45d8-8180-11e33a857376",
  "schema": "https://metadata.datadrivendiscovery.org/schemas/v0/pipeline.json",
  "created": "2020-12-01T19:38:27.146991Z",
  "inputs": [
    {
      "name": "inputs"
    }
  ],
  "outputs": [
    {
      "data": "steps.3.produce",
      "name": "output predictions"
    }
  ],
  "steps": [
    {
      "type": "PRIMITIVE",
      "primitive": {
        "id": "4b42ce1e-9b98-4a25-b68e-fad13311eb65",
        "version": "0.3.0",
        "python_path": "d3m.primitives.data_transformation.dataset_to_dataframe.Common",
        "name": "Extract a DataFrame from a Dataset"
      },
      "arguments": {
        "inputs": {
          "type": "CONTAINER",
          "data": "inputs.0"
        }
      },
      "outputs": [
        {
          "id": "produce"
        }
      ]
    },
    {
      "type": "PRIMITIVE",
      "primitive": {
        "id": "d510cb7a-1782-4f51-b44c-58f0236e47c7",
        "version": "0.6.0",
        "python_path": "d3m.primitives.data_transformation.column_parser.Common",
        "name": "Parses strings into their types"
      },
      "arguments": {
        "inputs": {
          "type": "CONTAINER",
          "data": "steps.0.produce"
        }
      },
      "outputs": [
        {
          "id": "produce"
        }
      ]
    },
    {
      "type": "PRIMITIVE",
      "primitive": {
        "id": "2a031907-6b2c-3390-b365-921f89c8816a",
        "version": "2020.12.1",
        "python_path": "d3m.primitives.regression.gradient_boosting.SKlearn",
        "name": "sklearn.ensemble.gradient_boosting.GradientBoostingRegressor"
      },
      "arguments": {
        "inputs": {
          "type": "CONTAINER",
          "data": "steps.1.produce"
        },
        "outputs": {
          "type": "CONTAINER",
          "data": "steps.1.produce"
        }
      },
      "outputs": [
        {
          "id": "produce"
        },
        {
          "id": "produce_feature_importances"
        }
      ],
      "hyperparams": {
        "use_semantic_types": {
          "type": "VALUE",
          "data": true
        },
        "add_index_columns": {
          "type": "VALUE",
          "data": true
        }
      }
    },
    {
      "type": "PRIMITIVE",
      "primitive": {
        "id": "8d38b340-f83f-4877-baaa-162f8e551736",
        "version": "0.3.0",
        "python_path": "d3m.primitives.data_transformation.construct_predictions.Common",
        "name": "Construct pipeline predictions output"
      },
      "arguments": {
        "inputs": {
          "type": "CONTAINER",
          "data": "steps.2.produce"
        },
        "reference": {
          "type": "CONTAINER",
          "data": "steps.0.produce"
        }
      },
      "outputs": [
        {
          "id": "produce"
        }
      ]
    }
  ]
}