{
    "id":"83067afe-2785-473f-a3ee-78b089405864",
    "schema":"https://metadata.datadrivendiscovery.org/schemas/v0/pipeline.json",
    "created":"2019-11-25T18:55:23.382634Z",
    "inputs":[
        {
            "name":"input dataset"
        }
    ],
    "outputs":[
        {
            "data":"steps.13.produce",
            "name":"predictions of input dataset"
        }
    ],
    "steps":[
        {
            "type":"PRIMITIVE",
            "primitive":{
                "id":"dsbox-featurizer-do-nothing-dataset-version",
                "version":"1.5.3",
                "python_path":"d3m.primitives.data_preprocessing.do_nothing_for_dataset.DSBOX",
                "name":"DSBox do-nothing primitive dataset version",
                "digest":"22914373907ffddd7faed28b9aaf5e72482755b5953a49fc4289bb4aa2520688"
            },
            "arguments":{
                "inputs":{
                    "type":"CONTAINER",
                    "data":"inputs.0"
                }
            },
            "outputs":[
                {
                    "id":"produce"
                }
            ]
        },
        {
            "type":"PRIMITIVE",
            "primitive":{
                "id":"f31f8c1f-d1c5-43e5-a4b2-2ae4a761ef2e",
                "version":"0.2.0",
                "python_path":"d3m.primitives.data_transformation.denormalize.Common",
                "name":"Denormalize datasets",
                "digest":"77f4ad3affd17b2b1053aebdbb172911797eec89a0eccbb8d07093c7ebfeb393"
            },
            "arguments":{
                "inputs":{
                    "type":"CONTAINER",
                    "data":"steps.0.produce"
                }
            },
            "outputs":[
                {
                    "id":"produce"
                }
            ]
        },
        {
            "type":"PRIMITIVE",
            "primitive":{
                "id":"4b42ce1e-9b98-4a25-b68e-fad13311eb65",
                "version":"0.3.0",
                "python_path":"d3m.primitives.data_transformation.dataset_to_dataframe.Common",
                "name":"Extract a DataFrame from a Dataset",
                "digest":"d276cbf84a7208b600ff3e67cc8503120fb969c8e6a0d88f1a1983f95e038e7b"
            },
            "arguments":{
                "inputs":{
                    "type":"CONTAINER",
                    "data":"steps.1.produce"
                }
            },
            "outputs":[
                {
                    "id":"produce"
                }
            ]
        },
        {
            "type":"PRIMITIVE",
            "primitive":{
                "id":"4503a4c6-42f7-45a1-a1d4-ed69699cf5e1",
                "version":"0.3.0",
                "python_path":"d3m.primitives.data_transformation.extract_columns_by_semantic_types.Common",
                "name":"Extracts columns by semantic type",
                "digest":"bf6c1d0253ef856b6780ca40861634d0662b400c44acad35de0712891e886986"
            },
            "arguments":{
                "inputs":{
                    "type":"CONTAINER",
                    "data":"steps.2.produce"
                }
            },
            "outputs":[
                {
                    "id":"produce"
                }
            ],
            "hyperparams":{
                "semantic_types":{
                    "type":"VALUE",
                    "data":[
                        "https://metadata.datadrivendiscovery.org/types/PrimaryKey",
                        "https://metadata.datadrivendiscovery.org/types/Attribute"
                    ]
                }
            }
        },
        {
            "type":"PRIMITIVE",
            "primitive":{
                "id":"b2612849-39e4-33ce-bfda-24f3e2cb1e93",
                "version":"1.5.3",
                "python_path":"d3m.primitives.schema_discovery.profiler.DSBOX",
                "name":"DSBox Profiler",
                "digest":"7272173f9b0162044912a6a460ae8cdc660dc4ad72ea9ce6d7477ffe2104c1d0"
            },
            "arguments":{
                "inputs":{
                    "type":"CONTAINER",
                    "data":"steps.3.produce"
                }
            },
            "outputs":[
                {
                    "id":"produce"
                }
            ]
        },
        {
            "type":"PRIMITIVE",
            "primitive":{
                "id":"dsbox-cleaning-featurizer",
                "version":"1.5.3",
                "python_path":"d3m.primitives.data_cleaning.cleaning_featurizer.DSBOX",
                "name":"DSBox Cleaning Featurizer",
                "digest":"28aab294f0c007e93fa4f5b7517aca4cc86c7066d2405c908a91299ada2f0d28"
            },
            "arguments":{
                "inputs":{
                    "type":"CONTAINER",
                    "data":"steps.4.produce"
                }
            },
            "outputs":[
                {
                    "id":"produce"
                }
            ]
        },
        {
            "type":"PRIMITIVE",
            "primitive":{
                "id":"18f0bb42-6350-3753-8f2d-d1c3da70f279",
                "version":"1.5.3",
                "python_path":"d3m.primitives.data_preprocessing.encoder.DSBOX",
                "name":"ISI DSBox Data Encoder",
                "digest":"c095c87aca5daab7865868ca8c6ac8ffd26aa508f7dd2404869c5f5bea6e30ee"
            },
            "arguments":{
                "inputs":{
                    "type":"CONTAINER",
                    "data":"steps.5.produce"
                }
            },
            "outputs":[
                {
                    "id":"produce"
                }
            ]
        },
        {
            "type":"PRIMITIVE",
            "primitive":{
                "id":"7ddf2fd8-2f7f-4e53-96a7-0d9f5aeecf93",
                "version":"1.5.3",
                "python_path":"d3m.primitives.data_transformation.to_numeric.DSBOX",
                "name":"ISI DSBox To Numeric DataFrame",
                "digest":"b1aeaf11edc88bd62142ba3fc8287c08bd1b8767ce18da906f4186baeed4d09e"
            },
            "arguments":{
                "inputs":{
                    "type":"CONTAINER",
                    "data":"steps.5.produce"
                }
            },
            "outputs":[
                {
                    "id":"produce"
                }
            ]
        },
        {
            "type":"PRIMITIVE",
            "primitive":{
                "id":"7894b699-61e9-3a50-ac9f-9bc510466667",
                "version":"1.5.3",
                "python_path":"d3m.primitives.data_preprocessing.mean_imputation.DSBOX",
                "name":"DSBox Mean Imputer",
                "digest":"048a96c7c4f49751fef738b0be218930a814f337788317afe2d950f9a3fe03fa"
            },
            "arguments":{
                "inputs":{
                    "type":"CONTAINER",
                    "data":"steps.7.produce"
                }
            },
            "outputs":[
                {
                    "id":"produce"
                }
            ]
        },
        {
            "type":"PRIMITIVE",
            "primitive":{
                "id":"dsbox-multi-table-feature-scaler",
                "version":"1.5.3",
                "python_path":"d3m.primitives.normalization.iqr_scaler.DSBOX",
                "name":"DSBox feature scaler",
                "digest":"e6aae6e4e585e62d792ce1f575ee492e9be0f4c6324cdde46987bfdb0731e3b5"
            },
            "arguments":{
                "inputs":{
                    "type":"CONTAINER",
                    "data":"steps.8.produce"
                }
            },
            "outputs":[
                {
                    "id":"produce"
                }
            ]
        },
        {
            "type":"PRIMITIVE",
            "primitive":{
                "id":"dsbox-featurizer-do-nothing",
                "version":"1.5.3",
                "python_path":"d3m.primitives.data_preprocessing.do_nothing.DSBOX",
                "name":"DSBox do-nothing primitive",
                "digest":"49e040c48dc0e624f8fc6cc29f36cd9211076167b877e35c5379ed34ee984a62"
            },
            "arguments":{
                "inputs":{
                    "type":"CONTAINER",
                    "data":"steps.9.produce"
                }
            },
            "outputs":[
                {
                    "id":"produce"
                }
            ]
        },
        {
            "type":"PRIMITIVE",
            "primitive":{
                "id":"4503a4c6-42f7-45a1-a1d4-ed69699cf5e1",
                "version":"0.3.0",
                "python_path":"d3m.primitives.data_transformation.extract_columns_by_semantic_types.Common",
                "name":"Extracts columns by semantic type",
                "digest":"bf6c1d0253ef856b6780ca40861634d0662b400c44acad35de0712891e886986"
            },
            "arguments":{
                "inputs":{
                    "type":"CONTAINER",
                    "data":"steps.2.produce"
                }
            },
            "outputs":[
                {
                    "id":"produce"
                }
            ],
            "hyperparams":{
                "semantic_types":{
                    "type":"VALUE",
                    "data":[
                        "https://metadata.datadrivendiscovery.org/types/TrueTarget"
                    ]
                }
            }
        },
        {
            "type":"PRIMITIVE",
            "primitive":{
                "id":"7ddf2fd8-2f7f-4e53-96a7-0d9f5aeecf93",
                "version":"1.5.3",
                "python_path":"d3m.primitives.data_transformation.to_numeric.DSBOX",
                "name":"ISI DSBox To Numeric DataFrame",
                "digest":"b1aeaf11edc88bd62142ba3fc8287c08bd1b8767ce18da906f4186baeed4d09e"
            },
            "arguments":{
                "inputs":{
                    "type":"CONTAINER",
                    "data":"steps.11.produce"
                }
            },
            "outputs":[
                {
                    "id":"produce"
                }
            ],
            "hyperparams":{
                "drop_non_numeric_columns":{
                    "type":"VALUE",
                    "data":false
                }
            }
        },
        {
            "type":"PRIMITIVE",
            "primitive":{
                "id":"2a031907-6b2c-3390-b365-921f89c8816a",
                "version":"2019.6.7",
                "python_path":"d3m.primitives.regression.gradient_boosting.SKlearn",
                "name":"sklearn.ensemble.gradient_boosting.GradientBoostingRegressor",
                "digest":"3677bf9d28d89173691afaa54b1bbfb8424f1bdc8d321938ed45d4a23ef00930"
            },
            "arguments":{
                "inputs":{
                    "type":"CONTAINER",
                    "data":"steps.10.produce"
                },
                "outputs":{
                    "type":"CONTAINER",
                    "data":"steps.12.produce"
                }
            },
            "outputs":[
                {
                    "id":"produce"
                }
            ],
            "hyperparams":{
                "add_index_columns":{
                    "type":"VALUE",
                    "data":true
                },
                "learning_rate":{
                    "type":"VALUE",
                    "data":0.1
                },
                "max_depth":{
                    "type":"VALUE",
                    "data":2
                },
                "min_samples_leaf":{
                    "type":"VALUE",
                    "data":{
                        "case":"absolute",
                        "value":1
                    }
                },
                "min_samples_split":{
                    "type":"VALUE",
                    "data":{
                        "case":"int",
                        "value":2
                    }
                },
                "n_estimators":{
                    "type":"VALUE",
                    "data":100
                },
                "use_semantic_types":{
                    "type":"VALUE",
                    "data":true
                }
            }
        }
    ],
    "name":"default_regression_template:140430303394192",
    "description":"",
    "digest":"df03efd9d4213615ce3c9c3e15c15c6559f629c717d27b821a8776ea25a72d56"
}